{
    "defaultSeverity": "error",
    "extends": [
        "tslint:recommended"
    ],
    "jsRules": {},
    "rules": {
        "prefer-const": false,
        "no-console": [ true, "log", "info", "debug" ],
        "object-literal-sort-keys": false
    },
    "rulesDirectory": []
}